<?xml version="1.0" encoding="UTF-8" standalone="no"?>
<!-- Created with Inkscape (http://www.inkscape.org/) -->
<svg
   xmlns:dc="http://purl.org/dc/elements/1.1/"
   xmlns:cc="http://creativecommons.org/ns#"
   xmlns:rdf="http://www.w3.org/1999/02/22-rdf-syntax-ns#"
   xmlns:svg="http://www.w3.org/2000/svg"
   xmlns="http://www.w3.org/2000/svg"
   xmlns:sodipodi="http://sodipodi.sourceforge.net/DTD/sodipodi-0.dtd"
   xmlns:inkscape="http://www.inkscape.org/namespaces/inkscape"
   width="16px"
   height="16px"
   id="svg2383"
   sodipodi:version="0.32"
   inkscape:version="0.46"
   sodipodi:docname="subAction.svg"
   inkscape:output_extension="org.inkscape.output.svg.inkscape"
   inkscape:export-filename="/home/jmague/work/dev/parent/rcpApplication/plugins/org.textometrie.rcpApplication/icons/subAction.png"
   inkscape:export-xdpi="90"
   inkscape:export-ydpi="90">
  <defs
     id="defs2385">
    <inkscape:perspective
       sodipodi:type="inkscape:persp3d"
       inkscape:vp_x="-37.018604 : 12.284868 : 1"
       inkscape:vp_y="7.4835514e-14 : 1216.7104 : 0"
       inkscape:vp_z="17.048764 : 12.44566 : 1"
       inkscape:persp3d-origin="-26.029722 : 7.5055652 : 1"
       id="perspective2539" />
    <inkscape:perspective
       id="perspective2509"
       inkscape:persp3d-origin="-33.267286 : 6.6402018 : 1"
       inkscape:vp_z="9.8111993 : 11.580296 : 1"
       inkscape:vp_y="7.4835514e-14 : 1216.7104 : 0"
       inkscape:vp_x="-44.256168 : 11.419504 : 1"
       sodipodi:type="inkscape:persp3d" />
    <inkscape:perspective
       id="perspective2493"
       inkscape:persp3d-origin="-31.285106 : 4.6580236 : 1"
       inkscape:vp_z="12.64932 : 13.157028 : 1"
       inkscape:vp_y="7.4835514e-14 : 1216.7104 : 0"
       inkscape:vp_x="-42.273988 : 9.4373262 : 1"
       sodipodi:type="inkscape:persp3d" />
    <inkscape:perspective
       id="perspective2477"
       inkscape:persp3d-origin="-26.735107 : -0.56771901 : 1"
       inkscape:vp_z="17.199319 : 7.9312848 : 1"
       inkscape:vp_y="7.4835514e-14 : 1216.7104 : 0"
       inkscape:vp_x="-37.723989 : 4.2115836 : 1"
       sodipodi:type="inkscape:persp3d" />
    <inkscape:perspective
       id="perspective2461"
       inkscape:persp3d-origin="-33.312335 : 7.4060435 : 1"
       inkscape:vp_z="10.622091 : 15.905048 : 1"
       inkscape:vp_y="7.4835514e-14 : 1216.7104 : 0"
       inkscape:vp_x="-44.301217 : 12.185346 : 1"
       sodipodi:type="inkscape:persp3d" />
    <inkscape:perspective
       sodipodi:type="inkscape:persp3d"
       inkscape:vp_x="-10.089798 : 16.607435 : 1"
       inkscape:vp_y="9.499173e-14 : 1548.887 : 0"
       inkscape:vp_z="31.470627 : 17.918898 : 1"
       inkscape:persp3d-origin="-0.42087098 : -3.6222191 : 1"
       id="perspective2391" />
  </defs>
  <sodipodi:namedview
     id="base"
     pagecolor="#ffffff"
     bordercolor="#666666"
     borderopacity="1.0"
     inkscape:pageopacity="0.0"
     inkscape:pageshadow="2"
     inkscape:zoom="47.4375"
     inkscape:cx="8.8497377"
     inkscape:cy="8"
     inkscape:current-layer="layer1"
     showgrid="true"
     inkscape:grid-bbox="true"
     inkscape:document-units="px"
     inkscape:window-width="1245"
     inkscape:window-height="964"
     inkscape:window-x="1275"
     inkscape:window-y="35" />
  <metadata
     id="metadata2388">
    <rdf:RDF>
      <cc:Work
         rdf:about="">
        <dc:format>image/svg+xml</dc:format>
        <dc:type
           rdf:resource="http://purl.org/dc/dcmitype/StillImage" />
      </cc:Work>
    </rdf:RDF>
  </metadata>
  <g
     id="layer1"
     inkscape:label="Layer 1"
     inkscape:groupmode="layer">
    <rect
       style="opacity:0.67000002;fill:#ffffff;fill-opacity:1;stroke:#000000;stroke-width:0.31033072;stroke-miterlimit:4;stroke-dasharray:none;stroke-opacity:1"
       id="rect3701"
       width="15.585636"
       height="15.552378"
       x="0.19148466"
       y="0.21452501" />
    <text
       xml:space="preserve"
       style="font-size:24px;font-style:normal;font-weight:normal;line-height:125%;fill:#000000;fill-opacity:1;stroke:none;stroke-width:1px;stroke-linecap:butt;stroke-linejoin:miter;stroke-opacity:1;font-family:Bitstream Vera Sans"
       x="-0.045049477"
       y="3.2509899"
       id="text3593"
       sodipodi:linespacing="125%"><tspan
         sodipodi:role="line"
         id="tspan3595"
         x="-0.045049477"
         y="3.2509899"
         style="font-size:4px;font-style:normal;font-variant:normal;font-weight:normal;font-stretch:normal;text-align:start;line-height:125%;writing-mode:lr-tb;text-anchor:start;fill:#800000;font-family:Bitstream Vera Sans;-inkscape-font-specification:Bitstream Vera Sans" /></text>
    <path
       style="opacity:0.67000002;fill:#800000;stroke-width:0.1;stroke-miterlimit:4;stroke-dasharray:none"
       d="M 0.36039604,9.1524752 C 15.767327,9.1524752 15.767327,9.1524752 15.767327,9.1524752"
       id="path3597" />
    <path
       style="opacity:0.67000002;fill:#800000;stroke-width:0.1;stroke-miterlimit:4;stroke-dasharray:none"
       d="M 19.866832,8.6118811 L 3.7391089,8.5668316"
       id="path3599" />
    <path
       style="opacity:0.67000002;fill:#800000;stroke-width:0.1;stroke-miterlimit:4;stroke-dasharray:none"
       d="M 1.9821782,9.5128712 L 0.36039604,9.5128712"
       id="path3601" />
    <rect
       style="opacity:0.67000002;fill:#000000;fill-opacity:1;stroke:#000000;stroke-width:0.41430652;stroke-linejoin:round;stroke-miterlimit:1;stroke-dasharray:none;stroke-dashoffset:3.483;stroke-opacity:1"
       id="rect5924"
       width="2.4256146"
       height="12.396627"
       x="2.0651903"
       y="1.8016863" />
  </g>
</svg>
