/* XPM */
static char * TXM logo_xpm[] = {
"32 32 373 2",
"  	c None",
". 	c #6E850F",
"+ 	c #6F880A",
"@ 	c #708D06",
"# 	c #526504",
"$ 	c #9AB33D",
"% 	c #94AD31",
"& 	c #8CA823",
"* 	c #87A317",
"= 	c #7E9C0A",
"- 	c #769301",
"; 	c #739000",
"> 	c #708D00",
", 	c #749203",
"' 	c #455702",
") 	c #A5BA4A",
"! 	c #83A209",
"~ 	c #7C9B00",
"{ 	c #799800",
"] 	c #779500",
"^ 	c #749200",
"/ 	c #6E8B00",
"( 	c #6D8900",
"_ 	c #718E02",
": 	c #A3B948",
"< 	c #769400",
"[ 	c #728F00",
"} 	c #6C8800",
"| 	c #6B8700",
"1 	c #698400",
"2 	c #6B8701",
"3 	c #93AD2F",
"4 	c #799700",
"5 	c #898D78",
"6 	c #9DA388",
"7 	c #A4AB88",
"8 	c #AAB288",
"9 	c #B1BA88",
"0 	c #B7C288",
"a 	c #BDCB88",
"b 	c #8BA238",
"c 	c #678200",
"d 	c #657D01",
"e 	c #ADC25E",
"f 	c #7B9905",
"g 	c #769500",
"h 	c #BABFA5",
"i 	c #CDD1BB",
"j 	c #D5D9C7",
"k 	c #FFFFFF",
"l 	c #EFF1E7",
"m 	c #D6DDBB",
"n 	c #D8E0BB",
"o 	c #96A94D",
"p 	c #658000",
"q 	c #546800",
"r 	c #0C0C0C",
"s 	c #161616",
"t 	c #272727",
"u 	c #353535",
"v 	c #404040",
"w 	c #ABBE5B",
"x 	c #718E00",
"y 	c #6F8C00",
"z 	c #74862D",
"A 	c #C7CFA5",
"B 	c #668100",
"C 	c #647F00",
"D 	c #637E00",
"E 	c #3B4900",
"F 	c #010101",
"G 	c #151515",
"H 	c #202020",
"I 	c #2A2A2A",
"J 	c #2F2F2F",
"K 	c #313131",
"L 	c #2E2E2E",
"M 	c #2B2B2B",
"N 	c #545454",
"O 	c #97AE3C",
"P 	c #739100",
"Q 	c #6D8A00",
"R 	c #73852D",
"S 	c #C6CFA5",
"T 	c #637D00",
"U 	c #627C00",
"V 	c #678100",
"W 	c #303C00",
"X 	c #252525",
"Y 	c #383838",
"Z 	c #333333",
"` 	c #303030",
" .	c #282828",
"..	c #262626",
"+.	c #585858",
"@.	c #B7C874",
"#.	c #769406",
"$.	c #6B8800",
"%.	c #6A8600",
"&.	c #71832D",
"*.	c #647E00",
"=.	c #617C00",
"-.	c #688301",
";.	c #040404",
">.	c #343434",
",.	c #424242",
"'.	c #464646",
").	c #232323",
"!.	c #1E1E1E",
"~.	c #565656",
"{.	c #B6C675",
"].	c #6A8500",
"^.	c #688400",
"/.	c #C5CEA5",
"(.	c #617B00",
"_.	c #506501",
":.	c #131313",
"<.	c #323232",
"[.	c #7D7D7D",
"}.	c #FCFCFC",
"|.	c #D0D0D0",
"1.	c #828282",
"2.	c #F1F1F1",
"3.	c #797979",
"4.	c #1B1B1B",
"5.	c #3E3E3E",
"6.	c #575757",
"7.	c #B0C461",
"8.	c #89A12C",
"9.	c #688300",
"0.	c #71822D",
"a.	c #2D2D2D",
"b.	c #D6D6D6",
"c.	c #616161",
"d.	c #373737",
"e.	c #E7E7E7",
"f.	c #DADADA",
"g.	c #181818",
"h.	c #B4C66E",
"i.	c #7A9419",
"j.	c #70812D",
"k.	c #678301",
"l.	c #030303",
"m.	c #474747",
"n.	c #F8F8F8",
"o.	c #D8D8D8",
"p.	c #9A9A9A",
"q.	c #FEFEFE",
"r.	c #515151",
"s.	c #101010",
"t.	c #7E7E7E",
"u.	c #ADBE66",
"v.	c #6E8809",
"w.	c #607B00",
"x.	c #607A00",
"y.	c #516401",
"z.	c #111111",
"A.	c #A0A0A0",
"B.	c #F5F5F5",
"C.	c #ACACAC",
"D.	c #0E0E0E",
"E.	c #787878",
"F.	c #A7B75C",
"G.	c #678203",
"H.	c #647F03",
"I.	c #6C8511",
"J.	c #68810B",
"K.	c #678101",
"L.	c #2C2C2C",
"M.	c #292929",
"N.	c #242424",
"O.	c #212121",
"P.	c #FBFBFB",
"Q.	c #606060",
"R.	c #0D0D0D",
"S.	c #9DB251",
"T.	c #627D00",
"U.	c #658003",
"V.	c #6C8704",
"W.	c #688304",
"X.	c #526603",
"Y.	c #222222",
"Z.	c #D3D3D3",
"`.	c #E8E8E8",
" +	c #DCDCDC",
".+	c #171717",
"++	c #0B0B0B",
"@+	c #5F5F5F",
"#+	c #889D2E",
"$+	c #769018",
"%+	c #779019",
"&+	c #6E8514",
"*+	c #5E710F",
"=+	c #495909",
"-+	c #020202",
";+	c #1F1F1F",
">+	c #8E8E8E",
",+	c #959595",
"'+	c #767676",
")+	c #818181",
"!+	c #0A0A0A",
"~+	c #868CAE",
"{+	c #858AAE",
"]+	c #8186AB",
"^+	c #7A7FA5",
"/+	c #7A80A5",
"(+	c #606882",
"_+	c #393939",
":+	c #F4F4F4",
"<+	c #F6F6F6",
"[+	c #141414",
"}+	c #080808",
"|+	c #9DA3C1",
"1+	c #949ABB",
"2+	c #888FB3",
"3+	c #7D83A9",
"4+	c #787EA4",
"5+	c #767BA0",
"6+	c #74799D",
"7+	c #72779A",
"8+	c #787DA1",
"9+	c #565B77",
"0+	c #7F7F7F",
"a+	c #808080",
"b+	c #494949",
"c+	c #C1C1C1",
"d+	c #747474",
"e+	c #4C4C4C",
"f+	c #A2A9C7",
"g+	c #8087AF",
"h+	c #767CA1",
"i+	c #666B8C",
"j+	c #6E7496",
"k+	c #73799D",
"l+	c #6E7395",
"m+	c #707598",
"n+	c #74799E",
"o+	c #4E546A",
"p+	c #090909",
"q+	c #070707",
"r+	c #050505",
"s+	c #4D4D4D",
"t+	c #9298BA",
"u+	c #7E84AB",
"v+	c #696E84",
"w+	c #EFEFF0",
"x+	c #D9D9DD",
"y+	c #72779B",
"z+	c #6C7194",
"A+	c #E5E6EC",
"B+	c #F6F6F9",
"C+	c #777C9A",
"D+	c #46485C",
"E+	c #434343",
"F+	c #ACB2CC",
"G+	c #8086AC",
"H+	c #7B81A8",
"I+	c #6E7284",
"J+	c #F8F8F9",
"K+	c #8487A5",
"L+	c #81849E",
"M+	c #F6F6F8",
"N+	c #7E829E",
"O+	c #696D8E",
"P+	c #707497",
"Q+	c #0F0F0F",
"R+	c #ADB1CA",
"S+	c #7B82A8",
"T+	c #797FA4",
"U+	c #747686",
"V+	c #F3F3F3",
"W+	c #CECFD2",
"X+	c #A4A6B7",
"Y+	c #6E7396",
"Z+	c #ACAEBD",
"`+	c #CECFDA",
" @	c #8589A4",
".@	c #686C8C",
"+@	c #676B8B",
"@@	c #6F7596",
"#@	c #A6AAC5",
"$@	c #767CA2",
"%@	c #787B88",
"&@	c #EDEDEF",
"*@	c #A6A7B0",
"=@	c #CBCCD3",
"-@	c #6A6F91",
";@	c #DBDCE2",
">@	c #A3A6B9",
",@	c #8D90A9",
"'@	c #666A8A",
")@	c #6C7294",
"!@	c #8F94B5",
"~@	c #777DA2",
"{@	c #747A9E",
"]@	c #80818B",
"^@	c #E7E7E9",
"/@	c #858798",
"(@	c #F4F4F5",
"_@	c #6B718D",
":@	c #FBFBFC",
"<@	c #737796",
"[@	c #9799B1",
"}@	c #656989",
"|@	c #5E6281",
"1@	c #BCC0D5",
"2@	c #797EA3",
"3@	c #888891",
"4@	c #DDDDE0",
"5@	c #6B6E8A",
"6@	c #FDFDFD",
"7@	c #A7A9B7",
"8@	c #D9DBE1",
"9@	c #686C8D",
"0@	c #FDFDFE",
"a@	c #9EA1B8",
"b@	c #666A89",
"c@	c #484C62",
"d@	c #B9BCD1",
"e@	c #72789B",
"f@	c #707699",
"g@	c #909197",
"h@	c #D4D5D9",
"i@	c #6B7091",
"j@	c #D2D3D7",
"k@	c #F1F1F3",
"l@	c #ADAFC0",
"m@	c #F7F7FA",
"n@	c #A6A9BE",
"o@	c #656988",
"p@	c #6D7193",
"q@	c #B4B7D2",
"r@	c #9499B4",
"s@	c #717699",
"t@	c #6F7496",
"u@	c #9A9A9F",
"v@	c #CCCDD1",
"w@	c #6A6F90",
"x@	c #A4A6B1",
"y@	c #82859F",
"z@	c #F1F1F5",
"A@	c #AEB1C3",
"B@	c #646988",
"C@	c #6B7193",
"D@	c #ADB2CB",
"E@	c #8D91AD",
"F@	c #6D7194",
"G@	c #8E909D",
"H@	c #A5A7B5",
"I@	c #797C97",
"J@	c #B0B2C0",
"K@	c #C3C4D3",
"L@	c #989BB2",
"M@	c #646887",
"N@	c #5F637F",
"O@	c #A6ADC7",
"P@	c #878AA7",
"Q@	c #696E8E",
"R@	c #656A89",
"S@	c #474D61",
"T@	c #A0A5C3",
"U@	c #8185A2",
"V@	c #6F7495",
"W@	c #6C7292",
"X@	c #989EBA",
"Y@	c #7D819F",
"Z@	c #707493",
"`@	c #787C9D",
" #	c #727796",
".#	c #606580",
"+#	c #9096B2",
"@#	c #888DAB",
"##	c #8288A6",
"                . + @ #                                         ",
"      $ % & * = - ; > , '                                       ",
"    ) ! ~ { ] ^ ; > / ( _                                       ",
"    : ~ { < ^ [ > / } | 1 2                                     ",
"    3 4 | 5 6 7 8 9 0 a b c d                                   ",
"  e f g ( h i j k l m n o p p q             r s t u v           ",
"  w < ^ x y / z k A c B p C D p E   F G H I J K L M I N         ",
"  O P x y Q } R k S B p C T U V W   X Y u Z ` L M  ... .+.      ",
"@.#.> y Q $.%.&.k S p *.T U =.-.  ;.>.u ,.'.K M  . .).!.J ~.    ",
"{.> / Q $.].^.&.k /.D T U =.(._.  :.>.<.[.}.|. ...1.2.3.4.5.6.  ",
"7.8.( } %.9.c 0.k /.T U =.(.c     ).<.J a.b.k c.d.e.f.!.g.G 6.  ",
"  h.i.].9.B p j.k /.=.(.(.(.k.  l.` J a.I m.n.o.p.q.r.g.s :.s.t.",
"    u.v.c p p &.k /.(.(.w.x.y.  z.J a.I t X A.k B.C.g.G :.s.D.E.",
"      F.G.C D H.I.J.(.w.x.K.    H L.M.t N.O.N P.k Q.G :.s.R.Y   ",
"        S.C T.=.(.(.U.V.W.X.    X M.t X Y.X Z.B.`. +.+s.D.++@+  ",
"          #+$+%+&+*+=+          -+N.N.O.;+>+q.,+'+k )+R.++!+@+  ",
"                    ~+{+]+^+/+(+  ;.O.;+_+:+<+).[+|.B.X }+J     ",
"              |+1+2+3+4+5+6+7+8+9+  D.4.0+ +a+z.D.b+c+d+;.e+    ",
"            f+g+h+i+j+h+k+7+l+m+n+o+  z.s [+z.D.r p+q+;.r+s+    ",
"            t+u+v+w+x+6+y+z+A+B+C+7+D+-+s.z.D.r D.s ).J E+      ",
"          F+G+H+I+q.J+K+m+L+M+k N+O+P+  ;.r D.Q+z.              ",
"          R+S+T+U+V+W+X+Y+Z+`+k  @.@+@@@                        ",
"          #@T+$@%@&@*@=@-@;@>@k ,@+@'@)@                        ",
"          !@~@{@]@^@/@(@_@:@<@k [@'@}@|@                        ",
"        1@2@{@y+3@4@5@6@7@8@9@0@a@}@b@c@                        ",
"        d@n+e@f@g@h@i@j@k@l@+@m@n@o@p@                          ",
"        q@r@s@t@u@v@w@x@k y@'@z@A@B@C@                          ",
"          D@E@F@G@H@O+I@J@'@}@K@L@M@N@                          ",
"            O@P@w@Q@9@+@'@}@o@B@M@R@S@                          ",
"              T@U@9@+@'@}@o@B@'@V@W@                            ",
"                X@Y@'@b@Z@`@ #.#                                ",
"                  +#@###                                        "};
